PA1_template.Rmd
…
Calculate and report the mean and median total number of steps taken per day

sub2<- group_by(act_file_clean[,1:2], date) %>% 
  summarize(mean = mean(steps), median = median(steps))
sub2

## # A tibble: 53 x 3
##    date         mean median
##  * <date>      <dbl>  <dbl>
##  1 2012-10-02  0.438      0
##  2 2012-10-03 39.4        0
##  3 2012-10-04 42.1        0
##  4 2012-10-05 46.2        0
##  5 2012-10-06 53.5        0
##  6 2012-10-07 38.2        0
##  7 2012-10-09 44.5        0
##  8 2012-10-10 34.4        0
##  9 2012-10-11 35.8        0
## 10 2012-10-12 60.4        0
## # … with 43 more rows
…
sub7_2<- group_by(act_imputing[,1:2], date) %>% 
  summarize(mean = mean(steps), median = median(steps))

sub7_2

## # A tibble: 61 x 3
##    date         mean median
##  * <date>      <dbl>  <dbl>
##  1 2012-10-01  0          0
##  2 2012-10-02  0.438      0
##  3 2012-10-03 39.4        0
##  4 2012-10-04 42.1        0
##  5 2012-10-05 46.2        0
##  6 2012-10-06 53.5        0
##  7 2012-10-07 38.2        0
##  8 2012-10-08  0          0
##  9 2012-10-09 44.5        0
## 10 2012-10-10 34.4        0
## # … with 51 more rows
…
